com/br/investimentos/Api/Investimentos/errors/ObjetoDeErro.class
com/br/investimentos/Api/Investimentos/controllers/SimulacaoController.class
com/br/investimentos/Api/Investimentos/controllers/InvestimentoController.class
com/br/investimentos/Api/Investimentos/services/InvestimentoService.class
com/br/investimentos/Api/Investimentos/models/Investimento.class
com/br/investimentos/Api/Investimentos/repositories/InvestimentoRepository.class
com/br/investimentos/Api/Investimentos/exceptions/ManipuladorDeExcecoes.class
com/br/investimentos/Api/Investimentos/models/SimulacaoCadastro.class
com/br/investimentos/Api/Investimentos/ApiInvestimentosApplication.class
com/br/investimentos/Api/Investimentos/enums/RiscoInvestimento.class
com/br/investimentos/Api/Investimentos/services/SimulacaoService.class
com/br/investimentos/Api/Investimentos/errors/RespostaDeErro.class
com/br/investimentos/Api/Investimentos/models/SimulacaoResposta.class
