com/br/investimentos/Api/Investimentos/services/SimulacaoServiceTest.class
com/br/investimentos/Api/Investimentos/services/InvestimentoServiceTest.class
com/br/investimentos/Api/Investimentos/controllers/InvestimentoControllerTest.class
com/br/investimentos/Api/Investimentos/controllers/SimulacaoControllerTest.class
